<?xml version="1.0" encoding="utf-8"?>
<!-- Generator: Adobe Illustrator 22.0.1, SVG Export Plug-In . SVG Version: 6.00 Build 0)  -->
<svg version="1.1" id="Layer_1" xmlns="http://www.w3.org/2000/svg" xmlns:xlink="http://www.w3.org/1999/xlink" x="0px" y="0px"
	 viewBox="0 0 924.2 385.1" style="enable-background:new 0 0 924.2 385.1;" xml:space="preserve">
<g>
	<path d="M320.3,122.7c21.2-10.5,31.8-26.9,31.8-48.9c0-29.9-22.6-57.4-60.6-57.4h-82.9v143.8l-41-75.2L121.9,2L2.4,216h51.8
		l13.5-24.9h98l-22.6-40.6H88L121.9,85l74.4,131h12.5l0,0H255v-81h13.3c25,0,32.3,38.3,52.2,81.1h50.8
		C345.1,157.5,339.4,132.9,320.3,122.7z M279.3,98.4h-24.4V53h23.4c17.4,0,26.4,7.6,26.4,22.5C304.6,92.5,292.1,98.4,279.3,98.4z"/>
	<path d="M458.7,16.4h-81.8V216h76.6c73.9,0,107.6-42.1,107.6-99.5C561.2,61.8,526.4,16.4,458.7,16.4z M453.3,179.5h-30.2V53h29.6
		c43.7,0,60.9,29,60.9,63.2C513.6,145.5,499.7,179.5,453.3,179.5z"/>
	<polygon points="625,131.5 709.5,131.5 709.5,94.9 625,94.9 625,53 713.6,53 713.6,16.4 578.8,16.4 578.8,216.1 715.5,216.1 
		715.5,179.5 625,179.5 	"/>
	<polygon points="875.5,16.4 875.5,138.5 776.6,16.4 734.3,16.4 734.3,216.1 780.4,216.1 780.4,88.2 882.9,216.1 921.7,216.1 
		921.7,16.4 	"/>
</g>
<g>
	<path d="M282.2,381.5v-51h-68v51H205V274.2h9.2v47.9h68v-47.9h9.2v107.2L282.2,381.5L282.2,381.5z"/>
	<path d="M370.3,383.4c-7.9,0-15.1-1.4-21.5-4.3c-6.4-2.8-11.9-6.8-16.4-11.7c-4.6-5-8.1-10.9-10.5-17.6c-2.5-6.8-3.7-14-3.7-21.9
		c0-7.8,1.2-15.1,3.7-21.9s6-12.6,10.5-17.6c4.6-5,10-8.9,16.4-11.7c6.4-2.8,13.6-4.3,21.5-4.3c7.8,0,15,1.4,21.4,4.3
		c6.4,2.8,11.9,6.8,16.5,11.7c4.6,5,8.1,10.9,10.5,17.6c2.5,6.8,3.7,14,3.7,21.9c0,7.8-1.2,15.1-3.7,21.9s-6,12.6-10.5,17.6
		c-4.6,5-10.1,8.9-16.5,11.7C385.2,382,378.1,383.4,370.3,383.4z M370.3,375c6.4,0,12.2-1.2,17.4-3.5c5.2-2.4,9.6-5.7,13.3-9.9
		c3.7-4.2,6.6-9.2,8.6-15c2-5.7,3-12,3-18.7c0-6.9-1-13.2-3-18.9c-2-5.7-4.9-10.7-8.6-14.9c-3.7-4.2-8.1-7.4-13.3-9.8
		s-11-3.5-17.4-3.5c-6.5,0-12.4,1.2-17.6,3.5c-5.2,2.4-9.6,5.6-13.3,9.8c-3.7,4.2-6.5,9.1-8.5,14.9c-2,5.7-3,12-3,18.9
		c0,6.8,1,13,3,18.7s4.8,10.7,8.5,15c3.7,4.2,8.1,7.5,13.3,9.9S363.7,375,370.3,375z"/>
	<path d="M541.6,381.5v-94.7l-39.1,94.7H499l-39.2-94.7v94.7h-9.2V274.2h13.6l36.4,88.4l36.3-88.4h13.8v107.2L541.6,381.5
		L541.6,381.5z"/>
	<path d="M581.5,381.5V274.2h68v8.4h-58.8v39.7h57.7v8.4h-57.7v42.4h58.8v8.4H581.5z"/>
	<path d="M711.9,383.4c-8.9,0-16.6-1.6-23.2-4.7c-6.6-3.2-11.9-7.3-16-12.3l5.9-6.9c1.7,2,3.7,4,5.9,5.9c2.3,1.9,4.8,3.5,7.6,5
		c2.8,1.4,5.9,2.6,9.2,3.5s6.8,1.3,10.7,1.3c5.5,0,10-0.7,13.7-2.1c3.6-1.4,6.6-3.1,8.8-5.2s3.7-4.4,4.6-6.9
		c0.9-2.5,1.3-4.9,1.3-7.2c0-5.3-1.6-9.3-4.7-12.2c-3.2-2.9-7.1-5.3-11.9-7.1c-4.8-1.8-9.9-3.4-15.5-4.7c-5.6-1.3-10.7-3.1-15.5-5.2
		s-8.7-5-11.9-8.6s-4.7-8.5-4.7-14.7c0-4.4,0.9-8.4,2.8-11.9c1.9-3.5,4.4-6.5,7.6-9c3.2-2.5,7-4.4,11.3-5.7c4.3-1.3,8.8-2,13.7-2
		c8,0,15.1,1.3,21.1,3.9s11.1,6.4,15.3,11.2l-6.1,6.8c-3.9-4.7-8.4-8.1-13.7-10.3c-5.3-2.1-10.9-3.2-17-3.2c-3.5,0-6.8,0.5-9.9,1.4
		c-3.1,1-5.7,2.3-8,4.1c-2.3,1.8-4,3.9-5.3,6.3s-1.9,5.1-1.9,8c0,3.4,0.9,6.3,2.7,8.5c1.8,2.3,4.3,4.1,7.3,5.6
		c3.1,1.5,6.5,2.8,10.3,3.9s7.7,2.3,11.7,3.5s8,2.5,11.8,3.9c3.9,1.4,7.3,3.4,10.4,5.7c3.1,2.4,5.5,5.2,7.3,8.6s2.7,7.6,2.7,12.6
		c0,3.4-0.6,6.9-1.9,10.5c-1.3,3.6-3.4,6.9-6.4,9.8s-7,5.4-11.9,7.2C725.1,382.5,719,383.4,711.9,383.4z"/>
</g>
</svg>
